stm32f4xx_hal_msp.c:66:6:HAL_MspInit	16	static
stm32f4xx_hal_msp.c:88:6:HAL_ADC_MspInit	48	static
stm32f4xx_hal_msp.c:124:6:HAL_ADC_MspDeInit	16	static
stm32f4xx_hal_msp.c:154:6:HAL_I2C_MspInit	48	static
stm32f4xx_hal_msp.c:190:6:HAL_I2C_MspDeInit	16	static
stm32f4xx_hal_msp.c:221:6:HAL_TIM_Base_MspInit	24	static
stm32f4xx_hal_msp.c:237:6:HAL_TIM_MspPostInit	40	static
stm32f4xx_hal_msp.c:269:6:HAL_TIM_Base_MspDeInit	16	static
